Model Fit and Standardization
…
Binary predictors in linear regression

We can include categorical predictors in a linear regression, but the interpretation of the coefficients is very specific. Whereas we talked about coefficients being interpreted as “the change in \(y\) associated with a 1-unit increase in \(x\),” for categorical explanatory variables, coefficients can be considered to examine differences in group means. However, they are actually doing exactly the same thing - the model is simply translating the levels (like “Yes”/“No”) in to 0s and 1s!

So while we may have in our dataframe a categorical predictor like the middle column “degree,” below, what is inputted into our model is more like the third column, “isYes.”

## # A tibble: 32 x 3
##    income degree isYes
##     <dbl> <chr>  <dbl>
##  1   37.7 No         0
##  2   37.4 No         0
##  3   26.4 No         0
##  4   73.5 Yes        1
##  5   65.1 Yes        1
##  6   50.0 No         0
##  7   55.8 No         0
##  8   59.5 No         0
##  9   60.1 No         0
## 10   70.0 Yes        1
## # ... with 22 more rows
…
