More About Logistic Regression
…
I

Intentions to Quit (1 = Never intend to quit; 2 = May intend to quit but not in the next 6 months; 3 = Intend to quit in the next 6 months; 4 = Intend to quit in the next 30 days)

Question 1

Read the data into R.

Perform a preliminary exploratory analysis of the data by computing summary statistics and visualising the distribution of the variables.

qa <- read_csv('https://uoepsy.github.io/data/QuitAttempts.csv')
qa

## # A tibble: 61 x 3
##        S     Q     I
##    <dbl> <dbl> <dbl>
##  1     1     0     1
##  2     2     1     3
##  3     3     1     2
##  4     4     0     1
##  5     5     1     2
##  6     6     1     2
##  7     7     1     3
##  8     8     0     3
##  9     9     1     3
## 10    10     0     2
## # … with 51 more rows
…
