Bootstrap for regression
…
While this shows you the estimated intercept and slope in the original sample

boot_mdl$t0

##       (Intercept) science_knowledge               age 
##       2.788248712      -0.080276256       0.002379446

You can visualise the uncertainty in the estimates by plotting histograms either manually:

plot_data <- as_tibble(boot_mdl$t)
plot_data

## # A tibble: 1,000 x 3
##    `(Intercept)` science_knowledge     age
##            <dbl>             <dbl>   <dbl>
##  1          2.74           -0.0754 0.00259
##  2          2.80           -0.0799 0.00176
##  3          2.75           -0.0747 0.00198
##  4          2.82           -0.0852 0.00237
##  5          2.80           -0.0797 0.00205
##  6          2.87           -0.0881 0.00212
##  7          2.83           -0.0847 0.00280
##  8          2.86           -0.0847 0.00179
##  9          2.82           -0.0795 0.00198
## 10          2.76           -0.0753 0.00231
## # ... with 990 more rows
…
