More About Logistic Regression
…
\(y_i\) is the observed response for unit \(i\), either 0 (failure) or 1 (success)

\(\hat p_i\) is the model-predicted probability of success

There is one residual per each case (row) in the dataset:

Pres <- residuals(mdl1, type = 'pearson')

To see this, we can add a column to the data:

sen %>%
  mutate(Pres = Pres)

## # A tibble: 54 × 3
##     wais senility  Pres
##    <dbl>    <dbl> <dbl>
##  1     9        1 1.29 
##  2    13        1 2.46 
##  3     6        1 0.793
##  4     8        1 1.10 
##  5    10        1 1.52 
##  6     4        1 0.574
##  7    14        1 2.89 
##  8     8        1 1.10 
##  9    11        1 1.78 
## 10     7        1 0.933
## # … with 44 more rows
…
