Exploratory vs Confirmatory Data Analysis
…
# helper function from lecture
get_pred <- function(model, test_data){
  data = as.data.frame(test_data)
  pred = add_predictions(data, model)
  return(pred)
}

predB <- map2_df(mB, CV$test, get_pred, .id = "Run")
predB

## # A tibble: 6,497 × 5
##    Run   quality alcohol col    pred
##    <chr>   <dbl>   <dbl> <chr> <dbl>
##  1 1           5     9.8 red    5.63
##  2 1           5     9.4 red    5.63
##  3 1           5     9.1 red    5.63
##  4 1           5     9.2 red    5.63
##  5 1           5     9.3 red    5.63
##  6 1           4     9   red    5.63
##  7 1           5     9.5 red    5.63
##  8 1           5     9.4 red    5.63
##  9 1           6     9.7 red    5.63
## 10 1           5     9.4 red    5.63
## # … with 6,487 more rows
…
As you see, model B leads to a MSE of 0.75.

Question 8

Calculate the MSE for model C using 3-fold cross validation.

 Solution 

mC <- map(CV$train, ~lm(quality ~ alcohol + col, data = .))

predC <- map2_df(mC, CV$test, get_pred, .id = "Run")
predC

## # A tibble: 6,497 × 5
##    Run   quality alcohol col    pred
##    <chr>   <dbl>   <dbl> <chr> <dbl>
##  1 1           5     9.8 red    5.43
##  2 1           5     9.4 red    5.31
##  3 1           5     9.1 red    5.21
##  4 1           5     9.2 red    5.24
##  5 1           5     9.3 red    5.27
##  6 1           4     9   red    5.18
##  7 1           5     9.5 red    5.34
##  8 1           5     9.4 red    5.31
##  9 1           6     9.7 red    5.40
## 10 1           5     9.4 red    5.31
## # … with 6,487 more rows
…
