dapR2 live analysis
…
condition

Experimental Condition: 0= control; 1 = low alcohol; 2 = high alcohol; 3 = marijuana

Analysis

Read in the data

library(tidyverse)

tib <- read_csv("https://uoepsy.github.io/data/RMS2_data.csv", col_types = "cdddff")

tib

## # A tibble: 80 x 6
##    ID      drive weight impulsivity Age   Condition
##    <chr>   <dbl>  <dbl>       <dbl> <fct> <fct>    
##  1 RMS2101    39     81        1    Young 0        
##  2 RMS2102    29     86        0.55 Young 0        
##  3 RMS2103    47     88        0.5  Young 0        
##  4 RMS2104    39     86        0.67 Young 0        
##  5 RMS2105    48     93        0.37 Young 0        
##  6 RMS2106    33     88       -0.19 Young 0        
##  7 RMS2107    36     77       -0.35 Young 0        
##  8 RMS2108    30     88        0.55 Young 0        
##  9 RMS2109    29     83       -0.73 Young 0        
## 10 RMS2110    62     87        1.84 Young 0        
## # ... with 70 more rows

Data checks

tib2 <- tib %>%
  select(ID, drive, impulsivity, Age)
tib2

## # A tibble: 80 x 4
##    ID      drive impulsivity Age  
##    <chr>   <dbl>       <dbl> <fct>
##  1 RMS2101    39        1    Young
##  2 RMS2102    29        0.55 Young
##  3 RMS2103    47        0.5  Young
##  4 RMS2104    39        0.67 Young
##  5 RMS2105    48        0.37 Young
##  6 RMS2106    33       -0.19 Young
##  7 RMS2107    36       -0.35 Young
##  8 RMS2108    30        0.55 Young
##  9 RMS2109    29       -0.73 Young
## 10 RMS2110    62        1.84 Young
## # ... with 70 more rows
…
